…
###Calculate the total number of steps taken per day.

```r
Day_TotalSteps <- activity %>%
  group_by(date) %>%
  summarize(Total_Steps = sum(steps, na.rm = T))
Day_TotalSteps
```

```
## # A tibble: 61 x 2
##    date       Total_Steps
##    <fct>            <int>
##  1 2012-10-01           0
##  2 2012-10-02         126
##  3 2012-10-03       11352
##  4 2012-10-04       12116
##  5 2012-10-05       13294
##  6 2012-10-06       15420
##  7 2012-10-07       11015
##  8 2012-10-08           0
##  9 2012-10-09       12811
## 10 2012-10-10        9900
## # ... with 51 more rows
```
…
```r
activity_imputed$steps[is.na(activity_imputed$steps)] <- activity_imputed$meanbyinterval[is.na(activity_imputed$steps)]
```
###Make a histogram of the total number of steps taken each day and Calculate and report the mean and median total number of steps taken per day.

```r
Day_TotalSteps_Imputed <- activity_imputed %>%
  group_by(date) %>%
  summarize(Total_Steps = sum(steps, na.rm = T))
Day_TotalSteps_Imputed
```

```
## # A tibble: 61 x 2
##    date       Total_Steps
##    <fct>            <dbl>
##  1 2012-10-01      10766.
##  2 2012-10-02        126.
##  3 2012-10-03      11352.
##  4 2012-10-04      12116.
##  5 2012-10-05      13294.
##  6 2012-10-06      15420.
##  7 2012-10-07      11015.
##  8 2012-10-08      10766.
##  9 2012-10-09      12811.
## 10 2012-10-10       9900.
## # ... with 51 more rows
```
…
